…
sample_names <- sub("_report.tsv.*", "", input_files)
sample_names
#> [1] "sample_01" "sample_02" "sample_03"

raw_clonotype_dataframe_list <- lapply(input_paths, readr::read_tsv) %>%
    magrittr::set_names(., value = sample_names)
raw_clonotype_dataframe_list
#> $sample_01
#> # A tibble: 622 x 9
#>    `#count` frequency CDR3nt                CDR3aa V     D     J     C     cid  
#>       <dbl>     <dbl> <chr>                 <chr>  <chr> <chr> <chr> <chr> <chr>
#>  1      377    0.113  TGTCTACAGCATAATACTCA~ CLQHN~ IGKV~ .     IGKJ~ IGKC  asse~
#>  2      297    0.0889 TGCATGCAACGTATAGAGTT~ CMQRI~ IGKV~ .     .     .     asse~
#>  3      277    0.0829 TGCATGCAAGCTCTACAAAC~ CMQAL~ IGKV~ .     IGKJ~ IGKC  asse~
#>  4      230    0.0688 TGTCAACAGCTTAATAGTTA~ CQQLN~ IGKV~ .     IGKJ~ IGKC  asse~
#>  5      209    0.0625 TGTCAACAGCTTAATAGTTA~ CQQLN~ IGKV~ .     IGKJ~ IGKC  asse~
#>  6      108    0.0323 TGCCAACAGTATAATAGTTA~ out_o~ IGKV~ .     IGKJ~ IGKC  asse~
#>  7      107    0.0320 TGCTGCTCATATGCAGGCAG~ CCSYA~ IGLV~ .     IGLJ~ IGLC  asse~
#>  8       86    0.0257 TGTCAGGCGTGGGACAGCAG~ CQAWD~ IGLV~ .     IGLJ~ IGLC  asse~
#>  9       83    0.0911 TGTGGGAATAACAATGCCAG~ CGNNN~ TRAV~ .     TRAJ~ .     asse~
#> 10       68    0.0738 TGTTGAGCAAATCATAGTGT~ C_ANH~ TRAV~ .     TRAJ~ .     asse~
#> # ... with 612 more rows
#> 
#> $sample_02
#> # A tibble: 860 x 9
#>    `#count` frequency CDR3nt                CDR3aa V     D     J     C     cid  
#>       <dbl>     <dbl> <chr>                 <chr>  <chr> <chr> <chr> <chr> <chr>
#>  1      346    0.0869 TGCATGCAACGTATAGAGTT~ CMQRI~ IGKV~ .     .     .     asse~
#>  2      279    0.0700 TGTCTACAGCATAATAGTTA~ CLQHN~ IGKV~ .     IGKJ~ IGKC  asse~
#>  3      181    0.0455 TGTCAACAGGCTAACAGTTT~ CQQAN~ IGKV~ .     IGKJ~ IGKC  asse~
#>  4      112    0.0282 TGCATGCAAGCTCTACAAAC~ CMQAL~ IGKV~ .     IGKJ~ IGKC  asse~
#>  5       79    0.711  TGTGCCACCTGGGACAGGCC~ out_o~ TRGV~ .     TRGJ~ TRGC  asse~
#>  6       76    0.150  TGTTGAGCAAATCATAGTGT~ C_ANH~ TRAV~ .     TRAJ~ .     asse~
#>  7       67    0.0169 TGTCAGCAGTATGGTAACTC~ CQQYG~ IGKV~ .     IGKJ~ IGKC  asse~
#>  8       63    0.124  TGTGACAATAACAATGACAT~ CDNNN~ TRAV~ .     TRAJ~ .     asse~
#>  9       61    0.0153 TGCCAACAGTATAATAGTTA~ CQQYN~ IGKV~ .     IGKJ~ IGKC  asse~
#> 10       58    0.0146 TGCATGCAAGGTACACACGT~ CMQGT~ IGKV~ .     IGKJ~ IGKC  asse~
#> # ... with 850 more rows
#> 
#> $sample_03
#> # A tibble: 975 x 9
#>    `#count` frequency CDR3nt                CDR3aa V     D     J     C     cid  
#>       <dbl>     <dbl> <chr>                 <chr>  <chr> <chr> <chr> <chr> <chr>
#>  1      300    0.454  TGCAGTGCTAGAGGAGCGGG~ CSARG~ TRBV~ TRBD~ TRBJ~ TRBC  asse~
#>  2       87    0.0207 TGCATGCAACGTATAGAGTT~ CMQRI~ IGKV~ .     .     IGKC  asse~
#>  3       81    0.0192 TGTCAGGCTTGGGATAACAA~ CQAWD~ IGLV~ .     IGLJ~ IGLC  asse~
#>  4       78    0.0185 TGTGCAGCATGGGATGACAG~ out_o~ IGLV~ .     IGLJ~ IGLC  asse~
#>  5       71    0.0169 TGCAGCTCATATACAAGCAG~ CSSYT~ IGLV~ .     IGLJ~ IGLC  asse~
#>  6       70    0.0169 TGTCAAAAGTATAACAGTGC~ CQKYN~ IGKV~ .     IGKJ~ IGKC  asse~
#>  7       60    0.0143 TGTCAGCAGTATAATCAGTG~ CQQYN~ IGKV~ .     IGKJ~ IGKC  asse~
#>  8       59    0.0854 TGTTGAGCAAATCATAGTGT~ C_ANH~ TRAV~ .     TRAJ~ .     asse~
#>  9       57    0.0138 TGTCAGCAGTATGGTAGCTC~ CQQYG~ IGKV~ .     IGKJ~ IGKC  asse~
#> 10       54    0.0128 TGTCAACAGTATTATAGTTA~ CQQYY~ IGKV~ .     IGKJ~ IGKC  asse~
#> # ... with 965 more rows
```
…
